…
```r
day<-group_by(data,date)
daysteps<-summarise(day,total=sum(steps))
```

```
## `summarise()` ungrouping output (override with `.groups` argument)
```

```r
print(daysteps)
```

```
## # A tibble: 53 x 2
##    date       total
##    <chr>      <int>
##  1 2012-10-02   126
##  2 2012-10-03 11352
##  3 2012-10-04 12116
##  4 2012-10-05 13294
##  5 2012-10-06 15420
##  6 2012-10-07 11015
##  7 2012-10-09 12811
##  8 2012-10-10  9900
##  9 2012-10-11 10304
## 10 2012-10-12 17382
## # … with 43 more rows
```
…
```r
interval<-group_by(data,interval)
intervalstep<- summarise(interval, mean = mean(steps))
```

```
## `summarise()` ungrouping output (override with `.groups` argument)
```

```r
intervalstep
```

```
## # A tibble: 288 x 2
##    interval   mean
##       <int>  <dbl>
##  1        0 1.72  
##  2        5 0.340 
##  3       10 0.132 
##  4       15 0.151 
##  5       20 0.0755
##  6       25 2.09  
##  7       30 0.528 
##  8       35 0.868 
##  9       40 0     
## 10       45 1.47  
## # … with 278 more rows
```
…
